{
	"description": "项目配置文件。",
	"setting": {
		"urlCheck": true,
		"es6": true,
		"postcss": true,
		"minified": true,
		"newFeature": true
	},
	"compileType": "miniprogram",
	"libVersion": "1.9.94",
	"appid": "wx67233389874a6f9c",
	"projectname": "wechat",
	"isGameTourist": false,
	"condition": {
		"search": {
			"current": -1,
			"list": []
		},
		"conversation": {
			"current": -1,
			"list": []
		},
		"plugin": {
			"current": -1,
			"list": []
		},
		"game": {
			"currentL": -1,
			"list": []
		},
		"miniprogram": {
			"current": -1,
			"list": [
				{
					"id": -1,
					"name": "logs",
					"pathName": "pages/logs/logs",
					"query": "name=aaa&",
					"scene": "1025"
				},
				{
					"id": -1,
					"name": "join",
					"pathName": "pages/join/join",
					"query": "",
					"scene": "1025"
				}
			]
		}
	}
}